1220269
-110878
1645878
439059
191740552710
694466
40638890592
1297935
10028286460
491056
1493731
856127
942937
654271
263970206899
516836685326
530376536550
623609296866
183812837588
92174
295617732125
222088825872
129117
1541981
82404872190
120285286278
30293
50054335008
1089372
109897
95053535920
45629
1334812
156744
625622882052
47293170297
2825
260052219556
933727
98159873916
1303169
79800833349
1725156
-5640
1051850
126103826290
377595
268204816572
939522
348727176544
744489
558105
-370605
51176
-350464
627157
844798
304440194118
129498585813
-561494
68530703032
137829171700
248915902354
758366
521138885355
1260571
214835697912
-642039
97941163794
433936
905816
637834
1031067
152881503670
483047
466580602950
972740
104312496444
1049704
86109927792
73324953016
173693842878
267676231480
346205
-48069
186048462600
328070
-83243
87069402756
74105947494
512137853600
492520
1237539
-416750
-36961
243270753437
801895
986586
127494173050
481550
749774
99606
297689
295774244766
135520
105415653024
633929
1017014
230850427855
23089838879
898401987529
1227372
1640277
232738
522461925518
34916316030
551566083824
721475
1923
475075111716
608488
1630799
788155
-124839
775148
312926
251309784120
23891
589606600107
553844692093
-122933
507855122804
1838805
-398660
1558780
658534
1144001
4404389289
-226864
942114
752546
483548
276336
-897756
128579994750
151027666100
-54572
285874
22896579840
107890907350
218565463512
-161002
433041
116525233500
-290891
467747727785
276031
371871568008
35486797236
141086
700277
824920
1213355
626538
761219
1208881
79071011632
1646402
494784
1429499
499137947532
-226456
172826001868
220937103440
-221074
807072
261468
364583
1059617
19449
347819173339
122672
913602
-850131
147125463786
404261
121099
36796
847273
46848548740
50714290095
683463
99807131834
163348
1597085
483785
315327614900
147463
1841
937174
439571
-173730
-136172
123416
246329703980
950848
-404636
229544
12580628851
190985161960
518773
-466000
277736066109
203066
558239
1324674
619937143245
624080
478966
1483243
13363321650
286000564080
599856337587
24611063355
43584641125
460025
1373911
-467940
450747
-218552
430015015958
1130888
616556
1142863
1742442
4410611882
125446
51963965339
135202894175
1171235
21908
1341988
1071232
994474
546903560004
268177899000
748491
26101110411
-799259
678273
